SQLSTATE[22007]: Invalid datetime format: 1366 Incorrect decimal value: 'qqq' for column `bachkhoashop`.`skl_sanpham`.`price` at row 1 (SQL: insert into `skl_sanpham` (`tensp`, `price`, `chitietngan`, `category`, `alias`, `price_km`, `information`, `giamgia`, `soluong`, `type_product`, `type_giamgia`, `img`) values (Đèn chùm cao cấp RCP-8888/15D111, qqq, <p>qqq</p>, 21, Den-chum-cao-cap-RCP-8888-15D111, 333333, <p>qqq</p>, db1, 0, 0, 0, sanpham/zIUGd3Nm2LPfie9Oom5vmCniPg4JEVvy9jDihOLK.jpeg))<br>
SQLSTATE[22007]: Invalid datetime format: 1366 Incorrect decimal value: 'quyen' for column `bachkhoashop`.`skl_sanpham`.`price_km` at row 1 (SQL: insert into `skl_sanpham` (`tensp`, `price`, `chitietngan`, `category`, `alias`, `price_km`, `information`, `giamgia`, `soluong`, `type_product`, `type_giamgia`, `img`) values (Đèn chùm cao cấp RCP-8888/15D111, 1500001, <p>qqqq</p>, 19, Den-chum-cao-cap-RCP-8888-15D111, quyen, <p>qqq</p>, db2, 0, 0, 0, sanpham/EBBfqJILV9AERrzdnmSdkN8JBbgE6o8cO3fvRgab.jpeg))<br>
SQLSTATE[22007]: Invalid datetime format: 1366 Incorrect integer value: 'qqqqqqqqqq' for column `bachkhoashop`.`skl_order`.`sodt` at row 1 (SQL: insert into `skl_order` (`hoten`, `email`, `sodt`, `diachi`, `province`, `district`, `ward`, `hinhthuc`, `phivanchuyen`, `ghichu`, `token`, `tonggiamgia`, `tongtien`, `updated_at`, `created_at`) values (Lê Mai Quyền, lemaiquyen.cntt2015@gmail.com, qqqqqqqqqq, Số 720 Cư xá Phan Thành, 83, 835, -1, 1, 11000, ?, c76db12c821b79a9, 7440000, 2011000, 2019-07-15 11:44:44, 2019-07-15 11:44:44))<br>
SQLSTATE[22007]: Invalid datetime format: 1366 Incorrect integer value: 'qqqqqqqqqq' for column `bachkhoashop`.`skl_order`.`sodt` at row 1 (SQL: insert into `skl_order` (`hoten`, `email`, `sodt`, `diachi`, `province`, `district`, `ward`, `hinhthuc`, `phivanchuyen`, `ghichu`, `token`, `tonggiamgia`, `tongtien`, `updated_at`, `created_at`) values (Lê Mai Quyền, lemaiquyen.cntt2015@gmail.com, qqqqqqqqqq, Số 720 Cư xá Phan Thành, 83, 835, -1, 1, 11000, ?, 6766aa2750c19aad, 7440000, 2011000, 2019-07-15 11:44:18, 2019-07-15 11:44:18))<br>
SMTP connect() failed. https://github.com/PHPMailer/PHPMailer/wiki/Troubleshooting<br>
chào<br>